…
``` r
caminho_saida <- str_replace(caminhos_arquivos[26],".TXT|.txt",".xlsx")
write_xlsx(df,caminho_saida) 
```

## Calcular a emissão de CO<sub>2</sub> do solo para cada ponto em cada arquivo.

Será utilizada a abordagem de **Parkinson (1981)**

<img src="https://raw.githubusercontent.com/arpanosso/egm-5-data-input/master/img/data_format_3.png" width="600px" style="display: block; margin: auto;" />

``` r
df
#> # A tibble: 1,088 x 23
#>    tag_m3 date       time     plot_no rec_no   co2 pressure  flow   h2o  tsen
#>    <chr>  <date>     <time>     <dbl>  <dbl> <dbl>    <dbl> <dbl> <dbl> <dbl>
#>  1 M5     2022-06-20 22:17:38       1    664   424     959.   225     0     0
#>  2 M5     2022-06-20 22:17:39       1    665   424     959.   226     0     0
#>  3 M5     2022-06-20 22:17:40       1    666   424     959.   225     0     0
#>  4 M5     2022-06-20 22:17:41       1    667   424     959.   225     0     0
#>  5 M5     2022-06-20 22:17:42       1    668   424     959.   225     0     0
#>  6 M5     2022-06-20 22:17:43       1    669   425     959.   225     0     0
#>  7 M5     2022-06-20 22:17:44       1    670   425     959.   225     0     0
#>  8 M5     2022-06-20 22:17:45       1    671   425     959.   225     0     0
#>  9 M5     2022-06-20 22:17:46       1    672   426     959.   225     0     0
#> 10 M5     2022-06-20 22:17:47       1    673   426     959.   225     0     0
#> # ... with 1,078 more rows, and 13 more variables: o2 <dbl>, error <dbl>,
#> #   aux_v <dbl>, par <dbl>, tsoil <dbl>, tair <dbl>, msoil <dbl>,
#> #   process <dbl>, dc <dbl>, dt <dbl>, srl_rate <dbl>, srq_rate <dbl>,
#> #   point <dbl>
```
…
